…
``` r
shortH2Aaln_lookup_tbl <- tibble(
    aln_pos = 1: unique(width(shortH2Aaln)),
    ref_aa = strsplit( as.character(shortH2Aaln[["H2A.P_rhino"]]), 
                       split="" )[[1]] )  |> 
    mutate(ref_pos = cumsum(ref_aa != "-")) |> 
    mutate(ref_pos = case_when(ref_aa=="-" ~ NA,
                               TRUE ~ ref_pos) ) |> 
    mutate(tot_RK = shortH2Aaln_RK_counts)
shortH2Aaln_lookup_tbl
```

    ## # A tibble: 82 × 4
    ##    aln_pos ref_aa ref_pos tot_RK
    ##      <int> <chr>    <int>  <dbl>
    ##  1       1 A            1      0
    ##  2       2 C            2     28
    ##  3       3 L            3      0
    ##  4       4 P            4      2
    ##  5       5 T            5     34
    ##  6       6 A            6      0
    ##  7       7 E            7      1
    ##  8       8 L            8      0
    ##  9       9 Q            9      1
    ## 10      10 F           10      0
    ## # ℹ 72 more rows
…
