…
Use `left_join()` to add the human positions

``` r
aln_counts <- left_join(aln_counts,
                        alnPos_lookup_table, 
                        by="aln_pos") %>% 
    relocate(human_CENPA_ORF, .after=aln_pos) %>% 
    dplyr::rename(human_pos=human_CENPA_ORF)
aln_counts
```

    ## # A tibble: 492 × 7
    ##    aln_pos human_pos     A     C     G     T other
    ##      <int>     <int> <int> <int> <int> <int> <int>
    ##  1       1         1    34     0     0     0     0
    ##  2       2         2     0     0     0    34     0
    ##  3       3         3     0     0    34     0     0
    ##  4       4        NA     0     0     1     0    33
    ##  5       5        NA     0     0     0     1    33
    ##  6       6        NA     0     1     0     0    33
    ##  7       7        NA     0     0     1     0    33
    ##  8       8        NA     0     0     1     0    33
    ##  9       9        NA     0     0     1     0    33
    ## 10      10        NA     0     1     0     0    33
    ## # ℹ 482 more rows
…
``` r
human_nucs <- aln[[ref_name]] %>% 
    as.character() %>% 
    str_split("")
human_nucs <- human_nucs[[1]]

aln_counts$human_nuc <- human_nucs

aln_counts <- aln_counts %>% 
    relocate(human_nuc, .after=human_pos)
aln_counts
```

    ## # A tibble: 492 × 8
    ##    aln_pos human_pos human_nuc     A     C     G     T other
    ##      <int>     <int> <chr>     <int> <int> <int> <int> <int>
    ##  1       1         1 A            34     0     0     0     0
    ##  2       2         2 T             0     0     0    34     0
    ##  3       3         3 G             0     0    34     0     0
    ##  4       4        NA -             0     0     1     0    33
    ##  5       5        NA -             0     0     0     1    33
    ##  6       6        NA -             0     1     0     0    33
    ##  7       7        NA -             0     0     1     0    33
    ##  8       8        NA -             0     0     1     0    33
    ##  9       9        NA -             0     0     1     0    33
    ## 10      10        NA -             0     1     0     0    33
    ## # ℹ 482 more rows

Perhaps we drop the positions where human has a gap - we might not care
about those

``` r
aln_counts <- aln_counts %>% 
    filter(human_nuc != "-")
aln_counts
```

    ## # A tibble: 423 × 8
    ##    aln_pos human_pos human_nuc     A     C     G     T other
    ##      <int>     <int> <chr>     <int> <int> <int> <int> <int>
    ##  1       1         1 A            34     0     0     0     0
    ##  2       2         2 T             0     0     0    34     0
    ##  3       3         3 G             0     0    34     0     0
    ##  4      25         4 G             1     0    33     0     0
    ##  5      26         5 G             0     2    32     0     0
    ##  6      27         6 C             1    33     0     0     0
    ##  7      28         7 C             0    34     0     0     0
    ##  8      29         8 C             0    34     0     0     0
    ##  9      30         9 G             0     0    34     0     0
    ## 10      31        10 C             1    33     0     0     0
    ## # ℹ 413 more rows
…
