…
## default gapScore is NA, in which case gap positions get NA for all three columns (matrix_score, identical, positive)
aln_capsid_one_pair_position_scores_gapNA <- getPairAlnStatsByResidue(aln_capsid_one_pair)

## or, if we set gapScore=0, gap positions get matrix_score=0 and identical=positive=FALSE
aln_capsid_one_pair_position_scores_gap0 <- getPairAlnStatsByResidue(aln_capsid_one_pair, gapScore=0)

## position 2 - S:A scores 1.  SS scores 4. AA scores 4
## position 3 - G:T scores -2.  GG scores 6, TT scores 5

aln_capsid_one_pair_position_scores_gapNA
```

    ## # A tibble: 104 × 10
    ##    seq1_id  seq2_id aln_pos seq1_pos seq2_pos seq1  seq2  matrix_score identical
    ##    <chr>    <chr>     <int>    <int>    <int> <chr> <chr>        <int> <lgl>    
    ##  1 JN62828… AY6325…       1        1        1 M     M                5 TRUE     
    ##  2 JN62828… AY6325…       2        2        2 S     A                1 FALSE    
    ##  3 JN62828… AY6325…       3        3        3 G     T               -2 FALSE    
    ##  4 JN62828… AY6325…       4        4        4 R     R                5 TRUE     
    ##  5 JN62828… AY6325…       5        5        5 K     G               -2 FALSE    
    ##  6 JN62828… AY6325…       6       NA        6 -     A               NA NA       
    ##  7 JN62828… AY6325…       7       NA        7 -     S               NA NA       
    ##  8 JN62828… AY6325…       8       NA        8 -     K               NA NA       
    ##  9 JN62828… AY6325…       9        6        9 A     S                1 FALSE    
    ## 10 JN62828… AY6325…      10        7       10 Q     R                1 FALSE    
    ## # ℹ 94 more rows
    ## # ℹ 1 more variable: positive <lgl>
…
