…
We can also directly access extraInfo, but that doesn’t contain a column
for the tiplabel, making it hard to do much with it. I don’t like this
method.

``` r
nwk_tree_with_info_2@extraInfo
```

    ## # A tibble: 25 × 4
    ##     node fake_height fake_phenotype fake_phenotype2
    ##    <int>       <dbl> <chr>          <chr>          
    ##  1     1        91.9 nose           scales         
    ##  2     2        82.5 teeth          fur            
    ##  3     3        74.3 teeth          fur            
    ##  4     4       118.  teeth          spikes         
    ##  5     5       195.  nose           fur            
    ##  6     6       101.  nose           scales         
    ##  7     7        81.1 tail           scales         
    ##  8     8       105.  tail           spikes         
    ##  9     9       143.  teeth          scales         
    ## 10    10       129.  tail           fur            
    ## # ℹ 15 more rows
…
