…
46.8%
</td>

</tr>

</tbody>

</table>

``` r
cereals 
```

    ## # A tibble: 77 × 16
    ##    name      manufacturer type  calories protein   fat sodium fiber carbo sugars
    ##    <chr>     <fct>        <fct>    <dbl>   <dbl> <dbl>  <dbl> <dbl> <dbl>  <dbl>
    ##  1 100% Bran Nabisco      cold        70       4     1    130  10     5        6
    ##  2 100% Nat… Quaker Oats  cold       120       3     5     15   2     8        8
    ##  3 All-Bran  Kelloggs     cold        70       4     1    260   9     7        5
    ##  4 All-Bran… Kelloggs     cold        50       4     0    140  14     8        0
    ##  5 Almond D… Ralston Pur… cold       110       2     2    200   1    14        8
    ##  6 Apple Ci… General Mil… cold       110       2     2    180   1.5  10.5     10
    ##  7 Apple Ja… Kelloggs     cold       110       2     0    125   1    11       14
    ##  8 Basic 4   General Mil… cold       130       3     2    210   2    18        8
    ##  9 Bran Chex Ralston Pur… cold        90       2     1    200   4    15        6
    ## 10 Bran Fla… Post         cold        90       3     0    210   5    13        5
    ## # ℹ 67 more rows
    ## # ℹ 6 more variables: potass <dbl>, vitamins <dbl>, shelf <ord>, weight <dbl>,
    ## #   cups <dbl>, rating <dbl>
…
