…
First we pivot_longer using names_pattern argument

longer <- dat %>% 
    pivot_longer(cols=-group, 
                 names_pattern = "(.*)(..)$", 
                 names_to = c("limit", "name")) %>% 
    mutate(limit=ifelse(limit=="", "value", limit))
longer

## # A tibble: 54 × 4
##    group limit name  value
##    <chr> <chr> <chr> <dbl>
##  1 1     value BP     0.51
##  2 1     value HS     0.15
##  3 1     value BB     0.05
##  4 1     lower BP     0.16
##  5 1     upper BP     0.18
##  6 1     lower HS     0.5 
##  7 1     upper HS     0.52
##  8 1     lower BB     0.14
##  9 1     upper BB     0.16
## 10 2.1   value BP     0.67
## # ℹ 44 more rows
…
    mutate(
        boardgamecategory = str_replace_all(
            boardgamecategory,
            c(
                # pattern_to_replace = replacement
                # We have to wrap the names in backticks because all of the things we want to replace are special characters and R doesn’t like them in vector names if they’re not in backticks
                `[` = "",
                `]` = "",
                `"` = "",
                `'` = ""
            ) |> 
                coll() ## coll() tells str_replace_all() that we explicitly do not want to use regular expressions.
        ))

## # A tibble: 56,915 × 3
##       id name        boardgamecategory 
##    <dbl> <chr>       <chr>             
##  1 30549 Pandemic    Medical           
##  2   822 Carcassonne City Building     
##  3   822 Carcassonne Medieval          
##  4   822 Carcassonne Territory Building
##  5    13 Catan       Economic          
##  6    13 Catan       Negotiation       
##  7 68448 7 Wonders   Ancient           
##  8 68448 7 Wonders   Card Game         
##  9 68448 7 Wonders   City Building     
## 10 68448 7 Wonders   Civilization      
## # ℹ 56,905 more rows
…
