…
        boardgamecategory = str_replace_all(
            boardgamecategory,
            c(
                # pattern_to_replace = replacement
                # We have to wrap the names in backticks because all of the things we want to replace are special characters and R doesn’t like them in vector names if they’re not in backticks
                `[` = "",
                `]` = "",
                `"` = "",
                `'` = ""
            ) |> 
                coll() ## coll() tells str_replace_all() that we explicitly do not want to use regular expressions.
        ))
```

    ## # A tibble: 56,915 × 3
    ##       id name        boardgamecategory 
    ##    <dbl> <chr>       <chr>             
    ##  1 30549 Pandemic    Medical           
    ##  2   822 Carcassonne City Building     
    ##  3   822 Carcassonne Medieval          
    ##  4   822 Carcassonne Territory Building
    ##  5    13 Catan       Economic          
    ##  6    13 Catan       Negotiation       
    ##  7 68448 7 Wonders   Ancient           
    ##  8 68448 7 Wonders   Card Game         
    ##  9 68448 7 Wonders   City Building     
    ## 10 68448 7 Wonders   Civilization      
    ## # ℹ 56,905 more rows
…
